<?xml version="1.0" encoding="UTF-8" standalone="no"?>
<!DOCTYPE svg PUBLIC "-//W3C//DTD SVG 1.1//EN" "http://www.w3.org/Graphics/SVG/1.1/DTD/svg11.dtd">
<svg width="100%" height="100%" viewBox="0 0 109 99" version="1.1" xmlns="http://www.w3.org/2000/svg" xmlns:xlink="http://www.w3.org/1999/xlink" xml:space="preserve" style="fill-rule:evenodd;clip-rule:evenodd;stroke-linejoin:round;stroke-miterlimit:1.41421;">
    <g transform="matrix(1,0,0,1,-8406,-341)">
        <g id="Statistics-v2" transform="matrix(1.15593,0,0,1,4964.93,0)">
            <rect x="2027" y="0" width="1661" height="1080" style="fill:none;"/>
            <clipPath id="_clip1">
                <rect x="2027" y="0" width="1661" height="1080"/>
            </clipPath>
            <g clip-path="url(#_clip1)">
                <g transform="matrix(3.07593,0,0,2,2027,0)">
                    <path d="M540,2.5C540,1.12 539.37,0 538.594,0L1.406,0C0.63,0 0,1.12 0,2.5L0,537.5C0,538.88 0.63,540 1.406,540L538.594,540C539.37,540 540,538.88 540,537.5L540,2.5Z" style="fill:rgb(231,231,231);"/>
                </g>
                <g transform="matrix(1.44184,0,0,0.925926,2468.2,0)">
                    <rect x="0" y="0" width="540" height="540" style="fill:white;"/>
                </g>
                <g transform="matrix(1.85623,7.408e-32,0,2.16068,2912.54,259.434)">
                    <path d="M83.147,68.645L36.976,68.645L36.976,41.987L83.147,41.987L83.147,68.645ZM57.49,71.961C57.49,70.886 58.358,70.006 59.427,70.006C60.498,70.006 61.367,70.886 61.367,71.961C61.367,73.04 60.498,73.913 59.427,73.913C58.358,73.913 57.49,73.04 57.49,71.961M81.261,37.75L38.861,37.75C36.543,37.75 34.662,39.645 34.662,41.98L34.662,71.13C34.662,73.467 36.543,75.359 38.861,75.359L56.146,75.359L56.146,82.051L39.726,82.051L39.726,83.569L79.132,83.569L79.132,82.051L62.714,82.051L62.714,75.359L81.261,75.359C83.583,75.359 85.462,73.467 85.462,71.13L85.462,41.98C85.462,39.645 83.583,37.75 81.261,37.75" style="fill:rgb(245,166,35);fill-rule:nonzero;"/>
                </g>
            </g>
        </g>
    </g>
</svg>
